<?xml version="1.0" encoding="UTF-8" standalone="no"?>
<!-- Created with Inkscape (http://www.inkscape.org/) -->

<svg
   width="215.24001mm"
   height="215.24001mm"
   viewBox="0 0 215.24001 215.24001"
   version="1.1"
   id="svg1"
   xml:space="preserve"
   inkscape:version="1.2.2 (732a01d, 2022-12-09)"
   sodipodi:docname="physnet.svg"
   inkscape:export-filename="physnet.png"
   inkscape:export-xdpi="96"
   inkscape:export-ydpi="96"
   xmlns:inkscape="http://www.inkscape.org/namespaces/inkscape"
   xmlns:sodipodi="http://sodipodi.sourceforge.net/DTD/sodipodi-0.dtd"
   xmlns="http://www.w3.org/2000/svg"
   xmlns:svg="http://www.w3.org/2000/svg"><sodipodi:namedview
     id="namedview1"
     pagecolor="#ffffff"
     bordercolor="#000000"
     borderopacity="0.25"
     inkscape:showpageshadow="2"
     inkscape:pageopacity="0.0"
     inkscape:pagecheckerboard="0"
     inkscape:deskcolor="#d1d1d1"
     inkscape:document-units="mm"
     inkscape:zoom="0.52022838"
     inkscape:cx="264.307"
     inkscape:cy="308.51835"
     inkscape:window-width="1560"
     inkscape:window-height="901"
     inkscape:window-x="144"
     inkscape:window-y="122"
     inkscape:window-maximized="0"
     inkscape:current-layer="layer1"
     showgrid="false" /><defs
     id="defs1"><style
       id="style1">.fa-secondary{opacity:.4}</style><style
       id="style417">.fa-secondary{opacity:.4}</style></defs><g
     inkscape:label="Calque 1"
     inkscape:groupmode="layer"
     id="layer1"
     transform="translate(-1.1432187,-10.525393)"><path
       sodipodi:type="star"
       style="fill:#4792a5;fill-opacity:1;stroke-width:0.499999;stroke-linecap:round;stroke-linejoin:bevel"
       id="path1"
       inkscape:flatsided="true"
       sodipodi:sides="6"
       sodipodi:cx="75.959427"
       sodipodi:cy="-75.014824"
       sodipodi:r1="60.193417"
       sodipodi:r2="52.129032"
       sodipodi:arg1="1.0471976"
       sodipodi:arg2="1.5707963"
       inkscape:rounded="0"
       inkscape:randomized="0"
       d="m 106.05613,-22.885795 -60.193414,-2e-6 -30.096706,-52.12903 30.096711,-52.129023 60.193419,0 30.0967,52.129029 z"
       transform="matrix(1.7879045,0,0,1.7879045,-27.044902,252.26474)" /><g
       id="g432"
       transform="matrix(0.20800241,0,0,0.20800241,48.858605,60.134279)"><path
         class="fa-primary"
         d="m 288,0 h 112 c 8.8,0 16,7.164 16,16 v 48 c 0,8.84 -7.2,16 -16,16 h -80 v 15.53 l -13.4,-9.57 c -11.1,-7.95 -26.1,-7.95 -37.2,0 L 256,95.53 V 32 C 256,14.33 270.3,0 288,0 Z M 64,240 c 0,-8.8 7.16,-16 16,-16 h 32 c 8.8,0 16,7.2 16,16 v 64 c 0,8.8 -7.2,16 -16,16 H 80 c -8.84,0 -16,-7.2 -16,-16 z m 384,0 c 0,-8.8 7.2,-16 16,-16 h 32 c 8.8,0 16,7.2 16,16 v 64 c 0,8.8 -7.2,16 -16,16 h -32 c -8.8,0 -16,-7.2 -16,-16 z M 112,352 c 8.8,0 16,7.2 16,16 v 64 c 0,8.8 -7.2,16 -16,16 H 80 c -8.84,0 -16,-7.2 -16,-16 v -64 c 0,-8.8 7.16,-16 16,-16 z m 336,16 c 0,-8.8 7.2,-16 16,-16 h 32 c 8.8,0 16,7.2 16,16 v 64 c 0,8.8 -7.2,16 -16,16 h -32 c -8.8,0 -16,-7.2 -16,-16 z"
         id="path421"
         style="fill:#235276;fill-opacity:1" /><path
         class="fa-secondary"
         d="M 410.3,160 H 512 c 35.3,0 64,28.7 64,64 v 224 c 0,35.3 -28.7,64 -64,64 H 336 V 400 c 0,-26.5 -21.5,-48 -48,-48 -26.5,0 -48,21.5 -48,48 V 512 H 64 C 28.65,512 0,483.3 0,448 V 224 C 0,188.7 28.65,160 64,160 H 165.7 L 269.4,85.96 c 11.1,-7.95 26.1,-7.95 37.2,0 z M 288,192 c -26.5,0 -48,21.5 -48,48 0,26.5 21.5,48 48,48 26.5,0 48,-21.5 48,-48 0,-26.5 -21.5,-48 -48,-48 z M 80,224 c -8.84,0 -16,7.2 -16,16 v 64 c 0,8.8 7.16,16 16,16 h 32 c 8.8,0 16,-7.2 16,-16 v -64 c 0,-8.8 -7.2,-16 -16,-16 z m 368,80 c 0,8.8 7.2,16 16,16 h 32 c 8.8,0 16,-7.2 16,-16 v -64 c 0,-8.8 -7.2,-16 -16,-16 h -32 c -8.8,0 -16,7.2 -16,16 z M 80,352 c -8.84,0 -16,7.2 -16,16 v 64 c 0,8.8 7.16,16 16,16 h 32 c 8.8,0 16,-7.2 16,-16 v -64 c 0,-8.8 -7.2,-16 -16,-16 z m 384,0 c -8.8,0 -16,7.2 -16,16 v 64 c 0,8.8 7.2,16 16,16 h 32 c 8.8,0 16,-7.2 16,-16 v -64 c 0,-8.8 -7.2,-16 -16,-16 z"
         id="path423"
         style="opacity:1;fill:#ffffff;fill-opacity:1" /></g></g></svg>
